<?xml version="1.0" encoding="utf-8"?>
<!-- Generator: Adobe Illustrator 15.0.0, SVG Export Plug-In . SVG Version: 6.00 Build 0)  -->
<!DOCTYPE svg PUBLIC "-//W3C//DTD SVG 1.1//EN" "http://www.w3.org/Graphics/SVG/1.1/DTD/svg11.dtd">
<svg version="1.1" id="圖層_1" xmlns="http://www.w3.org/2000/svg" xmlns:xlink="http://www.w3.org/1999/xlink" x="0px" y="0px"
	 width="180px" height="50px" viewBox="20 2.5 180 50" enable-background="new 20 2.5 180 50" xml:space="preserve">
<g>
	<g>
		<g>
			<g>
				<g>
					<path fill="#FFFFFF" d="M29.784,48.524c-0.066,0.011-0.291-0.019-0.5-0.063c0,0,0,0-0.135-0.146
						c-0.219-0.241-0.219-0.241-0.219-0.241c0.092-0.348,0.71-1.391,1.375-2.318l10.796-15.083c0.665-0.928,1.361-1.818,1.549-1.979
						c0,0,0,0,0.221,0h0.005c0.22,0,0.22,0,0.22,0c0.187,0.157,0.89,1.04,1.563,1.963l2.973,4.082
						c0.672,0.922,1.292,1.838,1.378,2.036c0,0,0,0-0.041,0.19c-0.038,0.191-0.038,0.191-0.038,0.191
						c-0.159,0.146-1.092,0.742-2.074,1.323l-15.055,8.904C30.819,47.965,29.851,48.515,29.784,48.524z M44.1,32.25
						c-0.672-0.922-1.766-0.918-2.43,0.01l-8.318,11.626c-0.664,0.928-0.404,1.212,0.579,0.631l11.563-6.848
						c0.982-0.582,1.236-1.812,0.564-2.734L44.1,32.25z"/>
				</g>
			</g>
			<g>
				<g>
					<path fill="#FFFFFF" d="M70.024,48.479c-0.159,0.024-0.392,0.019-0.519-0.013c-0.126-0.029-0.907-1.021-1.56-1.958
						l-3.413-4.896c-0.653-0.938-1.736-0.948-2.407-0.024l-3.317,4.56c-0.671,0.923-1.535,1.854-1.917,2.07c0,0,0,0-0.324-0.234
						c-0.328-0.238-0.328-0.238-0.328-0.238c0.091-0.431,0.716-1.539,1.388-2.461l3.908-5.368c0.671-0.923,1.225-1.683,1.229-1.688
						c0.004-0.007,0.566-0.782,1.237-1.704l4.16-5.708c0.672-0.922,1.382-1.813,1.578-1.977c0,0,0,0,0.237,0c0,0,0.001,0,0.003,0
						c0.236,0,0.236,0,0.236,0c0.197,0.168,0.897,1.066,1.558,1.997l4.067,5.726c0.661,0.93,1.283,1.925,1.384,2.209
						c0,0,0,0-0.126,0.244c-0.124,0.247-0.379,0.394-0.65,0.394l0,0c-0.001,0-0.936-0.002-2.078-0.003l-7.532-0.015
						c-1.141-0.003-1.541,0.761-0.887,1.697l3.194,4.579c0.653,0.937,1.256,2.059,1.341,2.494c0,0,0,0-0.335,0.229
						C70.024,48.479,70.024,48.479,70.024,48.479z M66.019,36.241c-0.672,0.923-0.288,1.681,0.853,1.684l6.079,0.018
						c1.142,0.004,1.534-0.755,0.874-1.687l-2.658-3.742c-0.661-0.931-1.751-0.938-2.423-0.015L66.019,36.241z"/>
				</g>
			</g>
			<g>
				<g>
					<path fill="#FFFFFF" d="M85.352,48.015c-0.124,0.029-0.359,0.032-0.524,0.006c0,0,0,0-0.13-0.092
						c-0.327-0.237-0.327-0.237-0.327-0.237c0.09-0.433,0.712-1.544,1.383-2.468l10.53-14.488c0.671-0.923,1.425-1.764,1.675-1.868
						c0.25-0.105,1.278,0.945,1.95,1.868l10.531,14.488c0.671,0.924,1.294,2.035,1.384,2.468c0,0,0,0-0.328,0.237
						c-0.328,0.236-0.328,0.236-0.328,0.236c-0.381-0.221-1.243-1.155-1.914-2.08l-9.936-13.672c-0.671-0.923-1.769-0.923-2.44,0
						l-9.936,13.672C86.271,47.008,85.477,47.987,85.352,48.015z"/>
				</g>
			</g>
			<g>
				<g>
					<g>
						<path fill="#FFFFFF" d="M143.871,48.021c-0.166,0.026-0.402,0.023-0.523-0.006c-0.125-0.028-0.918-1.008-1.589-1.93
							l-9.95-13.681c-0.672-0.922-1.775-0.927-2.453-0.01l-10.02,13.542c-0.68,0.918-1.551,1.847-1.936,2.063c0,0,0,0-0.324-0.237
							c-0.323-0.241-0.323-0.241-0.323-0.241c0.095-0.432,0.728-1.536,1.406-2.454l10.608-14.343
							c0.681-0.917,1.315-1.736,1.414-1.82c0.1-0.083,0.514-0.126,0.637-0.094c0.125,0.031,0.918,1.002,1.589,1.924l10.538,14.491
							c0.672,0.922,1.294,2.033,1.384,2.466c0,0,0,0-0.329,0.238C143.871,48.021,143.871,48.021,143.871,48.021z"/>
					</g>
				</g>
				<g>
					<g>
						<path fill="#FFFFFF" d="M133.465,48.015c-0.121,0.029-0.359,0.032-0.523,0.006c0,0,0,0-0.131-0.092
							c-0.324-0.237-0.324-0.237-0.324-0.237c0.088-0.431,0.709-1.543,1.378-2.466l10.444-14.408
							c0.668-0.924,1.297-1.747,1.396-1.83s0.512-0.125,0.639-0.096c0.124,0.029,0.919,0.989,1.597,1.907l10.516,14.24
							c0.679,0.917,1.309,2.021,1.4,2.452c0,0,0,0-0.322,0.243c-0.325,0.239-0.325,0.239-0.325,0.239
							c-0.383-0.217-1.253-1.146-1.931-2.064l-9.918-13.434c-0.678-0.917-1.781-0.914-2.45,0.011l-9.853,13.598
							C134.383,47.008,133.589,47.987,133.465,48.015z"/>
					</g>
				</g>
			</g>
			<g>
				<g>
					<g>
						<path fill="#FFFFFF" d="M191.184,48.076c-0.166,0.025-0.404,0.021-0.526-0.006c-0.123-0.03-0.921-1-1.595-1.921L179.051,32.49
							c-0.675-0.921-1.773-0.917-2.439,0.01l-9.786,13.581c-0.668,0.925-1.524,1.862-1.906,2.084c0,0,0,0-0.329-0.235
							c-0.328-0.234-0.328-0.234-0.328-0.234c0.09-0.435,0.709-1.547,1.377-2.473l10.379-14.397
							c0.666-0.925,1.293-1.751,1.391-1.835c0.098-0.083,0.516-0.127,0.641-0.098c0.124,0.03,0.917,0.999,1.592,1.919l10.606,14.476
							c0.675,0.92,1.302,2.023,1.396,2.451c0,0,0,0-0.328,0.241C191.184,48.076,191.184,48.076,191.184,48.076z"/>
					</g>
				</g>
			</g>
		</g>
	</g>
</g>
<g>
	
		<rect x="100.857" y="8.59" transform="matrix(0.7195 0.6945 -0.6945 0.7195 38.5808 -73.5456)" fill="#FFFFFF" width="18.963" height="4.799"/>
	
		<rect x="107.93" y="1.508" transform="matrix(0.7195 0.6945 -0.6945 0.7195 38.5763 -73.5408)" fill="#FFFFFF" width="4.8" height="18.956"/>
</g>
</svg>
