[{
  "name": "OGUMA 水美媒 (肯霖國際股份有限公司)",
  "logo": "http://www.drama.com.tw/upload_files/client/1435730459.5321.jpg",
  "describe": "官方購物網站建置、活動網站規劃建置、網站經營維護。"
},{
  "name": "OGUMA 水美媒 (肯霖國際股份有限公司)",
  "logo": "http://www.drama.com.tw/upload_files/client/1435730459.5321.jpg",
  "describe": "官方購物網站建置、活動網站規劃建置、網站經營維護。"
},{
  "name": "台灣大正製藥股份有限公司",
  "logo": "http://www.drama.com.tw/upload_files/client/1435730459.4431.jpg",
  "describe": "品牌產品網站建置、網路活動規劃設計。"
},{
  "name": "台灣大正製藥股份有限公司",
  "logo": "http://www.drama.com.tw/upload_files/client/1435730459.4431.jpg",
  "describe": "品牌產品網站建置、網路活動規劃設計。"
},{
  "name": "mia銀飾",
  "logo": "http://www.drama.com.tw/upload_files/client/1435730458.4191.jpg",
  "describe": "官方網站、媒體素材。"
},{
  "name": "Client Name",
  "logo": "http://dummyimage.com/165x64/ddd/fff",
  "describe": "Short Describe....Short Describe...."
},{
  "name": "Client Name",
  "logo": "http://dummyimage.com/165x64/ddd/fff",
  "describe": "Short Describe....Short Describe...."
},{
  "name": "Client Name",
  "logo": "http://dummyimage.com/165x64/ddd/fff",
  "describe": "Short Describe....Short Describe...."
},{
  "name": "Client Name",
  "logo": "http://dummyimage.com/165x64/ddd/fff",
  "describe": "Short Describe....Short Describe...."
},{
  "name": "Client Name",
  "logo": "http://dummyimage.com/165x64/ddd/fff",
  "describe": "Short Describe....Short Describe...."
},{
  "name": "Client Name",
  "logo": "http://dummyimage.com/165x64/ddd/fff",
  "describe": "Short Describe....Short Describe...."
},{
  "name": "Client Name Client Name Client Name Client Name Client Name Client Name Client Name Client Name ",
  "logo": "http://dummyimage.com/165x64/ddd/fff",
  "describe": "Short Describe....Short Describe....Short Describe....Short Describe....Short Describe....Short Describe...."
},{
  "name": "Client Name",
  "logo": "http://dummyimage.com/165x64/ddd/fff",
  "describe": "Short Describe....Short Describe...."
},{
  "name": "Client Name",
  "logo": "http://dummyimage.com/165x64/ddd/fff",
  "describe": "Short Describe....Short Describe...."
},{
  "name": "Client Name",
  "logo": "http://dummyimage.com/165x64/ddd/fff",
  "describe": "Short Describe....Short Describe...."
},{
  "name": "Client Name",
  "logo": "http://dummyimage.com/165x64/ddd/fff",
  "describe": "Short Describe....Short Describe...."
},{
  "name": "Client Name",
  "logo": "http://dummyimage.com/165x64/ddd/fff",
  "describe": "Short Describe....Short Describe...."
},{
  "name": "Client Name",
  "logo": "http://dummyimage.com/165x64/ddd/fff",
  "describe": "Short Describe....Short Describe...."
},{
  "name": "Client Name",
  "logo": "http://dummyimage.com/165x64/ddd/fff",
  "describe": "Short Describe....Short Describe...."
},{
  "name": "Client Name",
  "logo": "http://dummyimage.com/165x64/ddd/fff",
  "describe": "Short Describe....Short Describe...."
},{
  "name": "Client Name",
  "logo": "http://dummyimage.com/165x64/ddd/fff",
  "describe": "Short Describe....Short Describe...."
},{
  "name": "Client Name Client Name Client Name Client Name Client Name Client Name Client Name Client Name ",
  "logo": "http://dummyimage.com/165x64/ddd/fff",
  "describe": "Short Describe....Short Describe....Short Describe....Short Describe....Short Describe....Short Describe...."
},{
  "name": "Client Name",
  "logo": "http://dummyimage.com/165x64/ddd/fff",
  "describe": "Short Describe....Short Describe...."
},{
  "name": "Client Name",
  "logo": "http://dummyimage.com/165x64/ddd/fff",
  "describe": "Short Describe....Short Describe...."
},{
  "name": "Client Name",
  "logo": "http://dummyimage.com/165x64/ddd/fff",
  "describe": "Short Describe....Short Describe...."
},{
  "name": "Client Name",
  "logo": "http://dummyimage.com/165x64/ddd/fff",
  "describe": "Short Describe....Short Describe...."
},{
  "name": "Client Name",
  "logo": "http://dummyimage.com/165x64/ddd/fff",
  "describe": "Short Describe....Short Describe...."
},{
  "name": "Client Name",
  "logo": "http://dummyimage.com/165x64/ddd/fff",
  "describe": "Short Describe....Short Describe...."
},{
  "name": "Client Name",
  "logo": "http://dummyimage.com/165x64/ddd/fff",
  "describe": "Short Describe....Short Describe...."
},{
  "name": "Client Name",
  "logo": "http://dummyimage.com/165x64/ddd/fff",
  "describe": "Short Describe....Short Describe...."
},{
  "name": "Client Name",
  "logo": "http://dummyimage.com/165x64/ddd/fff",
  "describe": "Short Describe....Short Describe...."
},{
  "name": "Client Name Client Name Client Name Client Name Client Name Client Name Client Name Client Name ",
  "logo": "http://dummyimage.com/165x64/ddd/fff",
  "describe": "Short Describe....Short Describe....Short Describe....Short Describe....Short Describe....Short Describe...."
},{
  "name": "Client Name",
  "logo": "http://dummyimage.com/165x64/ddd/fff",
  "describe": "Short Describe....Short Describe...."
},{
  "name": "Client Name",
  "logo": "http://dummyimage.com/165x64/ddd/fff",
  "describe": "Short Describe....Short Describe...."
},{
  "name": "Client Name",
  "logo": "http://dummyimage.com/165x64/ddd/fff",
  "describe": "Short Describe....Short Describe...."
},{
  "name": "Client Name",
  "logo": "http://dummyimage.com/165x64/ddd/fff",
  "describe": "Short Describe....Short Describe...."
},{
  "name": "Client Name",
  "logo": "http://dummyimage.com/165x64/ddd/fff",
  "describe": "Short Describe....Short Describe...."
},{
  "name": "Client Name",
  "logo": "http://dummyimage.com/165x64/ddd/fff",
  "describe": "Short Describe....Short Describe...."
},{
  "name": "Client Name",
  "logo": "http://dummyimage.com/165x64/ddd/fff",
  "describe": "Short Describe....Short Describe...."
},{
  "name": "Client Name",
  "logo": "http://dummyimage.com/165x64/ddd/fff",
  "describe": "Short Describe....Short Describe...."
},{
  "name": "Client Name",
  "logo": "http://dummyimage.com/165x64/ddd/fff",
  "describe": "Short Describe....Short Describe...."
},{
  "name": "Client Name Client Name Client Name Client Name Client Name Client Name Client Name Client Name ",
  "logo": "http://dummyimage.com/165x64/ddd/fff",
  "describe": "Short Describe....Short Describe....Short Describe....Short Describe....Short Describe....Short Describe...."
},{
  "name": "Client Name",
  "logo": "http://dummyimage.com/165x64/ddd/fff",
  "describe": "Short Describe....Short Describe...."
},{
  "name": "Client Name",
  "logo": "http://dummyimage.com/165x64/ddd/fff",
  "describe": "Short Describe....Short Describe...."
},{
  "name": "Client Name",
  "logo": "http://dummyimage.com/165x64/ddd/fff",
  "describe": "Short Describe....Short Describe...."
},{
  "name": "Client Name",
  "logo": "http://dummyimage.com/165x64/ddd/fff",
  "describe": "Short Describe....Short Describe...."
},{
  "name": "Client Name",
  "logo": "http://dummyimage.com/165x64/ddd/fff",
  "describe": "Short Describe....Short Describe...."
},{
  "name": "Client Name",
  "logo": "http://dummyimage.com/165x64/ddd/fff",
  "describe": "Short Describe....Short Describe...."
},{
  "name": "Client Name",
  "logo": "http://dummyimage.com/165x64/ddd/fff",
  "describe": "Short Describe....Short Describe...."
},{
  "name": "Client Name",
  "logo": "http://dummyimage.com/165x64/ddd/fff",
  "describe": "Short Describe....Short Describe...."
},{
  "name": "Client Name",
  "logo": "http://dummyimage.com/165x64/ddd/fff",
  "describe": "Short Describe....Short Describe...."
}]