<?xml version="1.0" encoding="utf-8"?>
<!-- Generator: Adobe Illustrator 15.0.0, SVG Export Plug-In . SVG Version: 6.00 Build 0)  -->
<!DOCTYPE svg PUBLIC "-//W3C//DTD SVG 1.1//EN" "http://www.w3.org/Graphics/SVG/1.1/DTD/svg11.dtd">
<svg version="1.1" id="圖層_1" xmlns="http://www.w3.org/2000/svg" xmlns:xlink="http://www.w3.org/1999/xlink" x="0px" y="0px"
	 width="90px" height="122px" viewBox="0 0 90 122" enable-background="new 0 0 90 122" xml:space="preserve">
<polygon fill="#FFFFFF" points="53.416,80.218 45,122 36.583,80.218 0,80.218 0,0 90,0 90,80.218 "/>
<path d="M22.998,64.625c-0.434,0-0.864-0.186-1.174-0.521c-0.501-0.552-0.553-1.384-0.119-1.998l30.192-42.252
	c0.294-0.426,0.777-0.667,1.282-0.667h0.013c0.503,0,0.98,0.231,1.279,0.653l12.38,17.022c0.254,0.361,0.356,0.822,0.263,1.262
	c-0.088,0.435-0.361,0.82-0.747,1.048L23.806,64.39C23.551,64.547,23.272,64.625,22.998,64.625 M53.196,23.487L28.669,57.828
	l34.583-20.516L53.196,23.487z"/>
</svg>
