<?xml version="1.0" encoding="utf-8"?>
<!-- Generator: Adobe Illustrator 15.0.0, SVG Export Plug-In . SVG Version: 6.00 Build 0)  -->
<!DOCTYPE svg PUBLIC "-//W3C//DTD SVG 1.1//EN" "http://www.w3.org/Graphics/SVG/1.1/DTD/svg11.dtd">
<svg version="1.1" id="圖層_1" xmlns="http://www.w3.org/2000/svg" xmlns:xlink="http://www.w3.org/1999/xlink" x="0px" y="0px"
	 width="180px" height="45px" viewBox="0 0 180 45" enable-background="new 0 0 180 45" xml:space="preserve">
<g>
	<g>
		<path fill="#231815" d="M2.256,44.072v-9.487h0.208l6.312,7.276v-7.276h0.935v9.487H9.499l-6.263-7.184v7.184H2.256z"/>
		<path fill="#231815" d="M38.392,41.744l0.761,0.399c-0.252,0.491-0.54,0.886-0.868,1.187c-0.323,0.301-0.691,0.529-1.102,0.688
			c-0.409,0.158-0.873,0.236-1.387,0.236c-1.143,0-2.042-0.374-2.689-1.126c-0.642-0.751-0.965-1.598-0.965-2.545
			c0-0.892,0.274-1.683,0.819-2.38c0.693-0.887,1.621-1.329,2.781-1.329c1.197,0,2.153,0.454,2.867,1.362
			c0.51,0.637,0.766,1.439,0.774,2.399h-6.316c0.018,0.813,0.279,1.482,0.785,2.004c0.504,0.52,1.124,0.781,1.863,0.781
			c0.359,0,0.709-0.063,1.046-0.186c0.337-0.122,0.624-0.291,0.861-0.497C37.859,42.534,38.114,42.205,38.392,41.744z
			 M38.392,39.855c-0.12-0.482-0.297-0.868-0.528-1.153c-0.23-0.29-0.532-0.522-0.913-0.698c-0.38-0.176-0.779-0.266-1.198-0.266
			c-0.684,0-1.277,0.222-1.773,0.667c-0.363,0.32-0.636,0.804-0.82,1.45H38.392z"/>
		<path fill="#231815" d="M62.464,34.45h0.903v2.606h1.431v0.781h-1.431v6.234h-0.903v-6.234h-1.237v-0.781h1.237V34.45z"/>
		<path fill="#231815" d="M85.812,37.057h0.93l2.152,5.096l2.237-5.096h0.163l2.255,5.096l2.193-5.096h0.938l-3.047,7.016h-0.168
			l-2.246-5.023l-2.241,5.023h-0.169L85.812,37.057z"/>
		<path fill="#231815" d="M121.67,36.875c1.08,0,1.977,0.393,2.689,1.174c0.646,0.716,0.965,1.558,0.965,2.535
			c0,0.98-0.341,1.84-1.022,2.569c-0.685,0.733-1.56,1.102-2.632,1.102c-1.075,0-1.957-0.368-2.639-1.102
			c-0.683-0.729-1.023-1.589-1.023-2.569c0-0.974,0.318-1.815,0.965-2.525C119.686,37.269,120.585,36.875,121.67,36.875z
			 M121.666,37.759c-0.748,0-1.396,0.276-1.936,0.833c-0.54,0.553-0.811,1.225-0.811,2.01c0,0.508,0.123,0.982,0.371,1.422
			c0.244,0.437,0.577,0.776,0.998,1.016c0.416,0.238,0.876,0.359,1.377,0.359c0.5,0,0.961-0.121,1.377-0.359
			c0.421-0.239,0.754-0.579,0.998-1.016c0.244-0.439,0.371-0.914,0.371-1.422c0-0.785-0.271-1.457-0.814-2.01
			C123.057,38.035,122.415,37.759,121.666,37.759z"/>
		<path fill="#231815" d="M147.264,37.057h0.92v1.022c0.277-0.4,0.565-0.702,0.873-0.905c0.306-0.197,0.625-0.299,0.957-0.299
			c0.246,0,0.514,0.079,0.797,0.24l-0.47,0.762c-0.19-0.083-0.35-0.123-0.479-0.123c-0.3,0-0.593,0.123-0.868,0.371
			c-0.283,0.244-0.495,0.627-0.643,1.148c-0.11,0.401-0.168,1.209-0.168,2.428v2.371h-0.92V37.057z"/>
		<path fill="#231815" d="M172.178,34.346h0.908v5.545l3.251-2.834h1.324l-3.858,3.346l4.09,3.67h-1.276l-3.53-3.16v3.16h-0.908
			V34.346z"/>
	</g>
	<g>
		<g>
			<g>
				<g>
					<path d="M3.021,23.276c-0.072,0.01-0.314-0.021-0.538-0.069c0,0,0,0-0.146-0.158c-0.238-0.26-0.238-0.26-0.238-0.26
						c0.1-0.375,0.768-1.502,1.485-2.504L15.242,3.997c0.717-1.002,1.47-1.964,1.672-2.137c0,0,0,0,0.239,0h0.005
						c0.238,0,0.238,0,0.238,0c0.202,0.169,0.961,1.123,1.687,2.119l3.211,4.408c0.726,0.996,1.396,1.986,1.488,2.199
						c0,0,0,0-0.044,0.207c-0.042,0.206-0.042,0.206-0.042,0.206c-0.171,0.158-1.178,0.801-2.239,1.429L5.2,22.043
						C4.14,22.671,3.093,23.266,3.021,23.276z M18.479,5.7c-0.726-0.996-1.906-0.991-2.623,0.011L6.874,18.266
						c-0.717,1.002-0.436,1.309,0.625,0.681l12.486-7.394c1.061-0.628,1.334-1.957,0.608-2.953L18.479,5.7z"/>
				</g>
			</g>
			<g>
				<g>
					<path d="M46.474,23.227c-0.171,0.026-0.423,0.021-0.559-0.014c-0.137-0.033-0.98-1.104-1.685-2.115l-3.685-5.285
						c-0.705-1.011-1.875-1.023-2.6-0.026l-3.583,4.923c-0.725,0.997-1.657,2.002-2.072,2.235c0,0,0,0-0.349-0.253
						c-0.354-0.257-0.354-0.257-0.354-0.257c0.1-0.465,0.774-1.661,1.5-2.657l4.219-5.797c0.726-0.996,1.323-1.817,1.328-1.823
						c0.005-0.006,0.611-0.843,1.337-1.839l4.491-6.166c0.726-0.996,1.493-1.956,1.705-2.133c0,0,0,0,0.255,0c0,0,0.001,0,0.004,0
						c0.254,0,0.254,0,0.254,0c0.212,0.182,0.97,1.152,1.684,2.157l4.392,6.182c0.714,1.004,1.386,2.079,1.495,2.387
						c0,0,0,0-0.136,0.263c-0.134,0.266-0.408,0.425-0.702,0.425l0,0c-0.001,0-1.011-0.002-2.243-0.004l-8.132-0.015
						c-1.232-0.002-1.664,0.823-0.958,1.834l3.449,4.943c0.705,1.011,1.357,2.223,1.448,2.694c0,0,0,0-0.362,0.248
						C46.474,23.227,46.474,23.227,46.474,23.227z M42.149,10.012c-0.726,0.996-0.312,1.814,0.921,1.817l6.564,0.02
						c1.232,0.003,1.657-0.816,0.944-1.821L47.71,5.987c-0.713-1.005-1.891-1.012-2.616-0.016L42.149,10.012z"/>
				</g>
			</g>
			<g>
				<g>
					<path d="M63.027,22.726c-0.134,0.032-0.389,0.034-0.566,0.006c0,0,0,0-0.141-0.101c-0.353-0.255-0.353-0.255-0.353-0.255
						c0.097-0.469,0.77-1.668,1.494-2.665L74.833,4.065c0.725-0.997,1.539-1.905,1.81-2.018s1.38,1.021,2.105,2.018l11.372,15.647
						c0.725,0.997,1.396,2.196,1.494,2.665c0,0,0,0-0.354,0.255s-0.354,0.255-0.354,0.255c-0.413-0.238-1.343-1.249-2.067-2.246
						L78.109,5.877c-0.725-0.997-1.91-0.997-2.635,0l-10.73,14.764C64.02,21.638,63.161,22.694,63.027,22.726z"/>
				</g>
			</g>
			<g>
				<g>
					<g>
						<path d="M126.219,22.732c-0.179,0.028-0.434,0.026-0.566-0.006c-0.134-0.032-0.989-1.088-1.715-2.085L113.193,5.869
							c-0.726-0.997-1.918-1.001-2.651-0.011L99.724,20.484c-0.733,0.991-1.673,1.992-2.088,2.226c0,0,0,0-0.352-0.257
							c-0.351-0.258-0.351-0.258-0.351-0.258c0.102-0.468,0.785-1.661,1.519-2.652l11.456-15.489
							c0.733-0.991,1.42-1.875,1.526-1.965c0.106-0.09,0.554-0.136,0.688-0.102c0.135,0.034,0.99,1.081,1.716,2.078l11.378,15.647
							c0.726,0.997,1.398,2.196,1.496,2.665c0,0,0,0-0.355,0.255C126.219,22.732,126.219,22.732,126.219,22.732z"/>
					</g>
				</g>
				<g>
					<g>
						<path d="M114.982,22.726c-0.133,0.032-0.388,0.034-0.566,0.006c0,0,0,0-0.141-0.101c-0.352-0.255-0.352-0.255-0.352-0.255
							c0.096-0.467,0.766-1.666,1.489-2.664l11.275-15.559c0.724-0.998,1.402-1.887,1.509-1.976s0.553-0.135,0.688-0.104
							c0.136,0.032,0.994,1.068,1.727,2.06l11.354,15.377c0.732,0.992,1.413,2.183,1.514,2.648c0,0,0,0-0.35,0.263
							c-0.352,0.258-0.352,0.258-0.352,0.258c-0.415-0.234-1.353-1.236-2.085-2.228L129.981,5.945
							c-0.732-0.992-1.923-0.986-2.646,0.012l-10.641,14.682C115.973,21.637,115.115,22.694,114.982,22.726z"/>
					</g>
				</g>
			</g>
			<g>
				<g>
					<g>
						<path d="M177.312,22.791c-0.181,0.028-0.438,0.024-0.57-0.007c-0.133-0.032-0.993-1.08-1.722-2.074L164.209,5.959
							c-0.729-0.994-1.914-0.99-2.635,0.01l-10.568,14.666c-0.721,1-1.646,2.013-2.058,2.251c0,0,0,0-0.356-0.255
							c-0.354-0.253-0.354-0.253-0.354-0.253c0.097-0.468,0.766-1.669,1.486-2.669L160.93,4.163c0.721-1,1.397-1.892,1.503-1.981
							s0.557-0.138,0.691-0.106s0.989,1.078,1.718,2.072l11.455,15.633c0.729,0.994,1.405,2.186,1.505,2.648c0,0,0,0-0.353,0.258
							C177.312,22.791,177.312,22.791,177.312,22.791z"/>
					</g>
				</g>
			</g>
		</g>
	</g>
</g>
</svg>
